{
  "id": "291b84c3.d6e47c",
  "type": "subflow",
  "name": "Run Integration",
  "info": "",
  "in": [
    {
      "x": 50,
      "y": 30,
      "wires": [
        {
          "id": "59625b4f.a69da4"
        }
      ]
    }
  ],
  "out": [
    {
      "x": 1030,
      "y": 490,
      "wires": [
        {
          "id": "6931ed66.96ce14",
          "port": 0
        }
      ]
    }
  ],
  "flow": [
    {
      "id": "59625b4f.a69da4",
      "type": "MSSQL",
      "z": "291b84c3.d6e47c",
      "mssqlCN": "57b67e7.fa8498",
      "name": "Get Metadata from SQL",
      "query": "SELECT * FROM CBRImportMetadata",
      "outField": "payload",
      "x": 238,
      "y": 31,
      "wires": [
        [
          "9d4844ad.62b7b8"
        ]
      ]
    },
    {
      "id": "35eb31b3.ca14ce",
      "type": "function",
      "z": "291b84c3.d6e47c",
      "name": "Set search limit",
      "func": "\nif (!msg.search) {\n    msg.search = {};\n}\n\nmsg.search.limit = 1000;\n\nreturn msg;",
      "outputs": 1,
      "noerr": 0,
      "x": 155,
      "y": 216,
      "wires": [
        [
          "859145ed.7a6eb8"
        ]
      ]
    },
    {
      "id": "859145ed.7a6eb8",
      "type": "MSSQL",
      "z": "291b84c3.d6e47c",
      "mssqlCN": "57b67e7.fa8498",
      "name": "Get all customers (SQL)",
      "query": "SELECT\t'CBR' AS [sourceSystem]\n\t\t,T_TIERS AS [id]\n\t\t,T_LIBELLE AS [lastName]\n\t\t,T_PRENOM AS [firstName]\n\t\t,T_EMAIL AS [email]\n\t\t,T_TELEPHONE AS [telephoneNumber]\n\t\t,T_FAX AS [fax]\n\t\t,T_TELEX AS [mobile]\n\t\t,T_TELEPHONE2 AS [phone2]\n\t\t,T_ADRESSE1 AS [addressLine1]\n\t\t,T_ADRESSE2 AS [addressLine2]\n\t\t,T_ADRESSE3 AS [addressLine3]\n\t\t,T_CODEPOSTAL AS [postcode]\n\t\t,T_VILLE AS [city]\nFROM\tTiers \nWHERE T_EMAIL is not null AND T_SOURCE_SYSTEM is null",
      "outField": "payload",
      "x": 369,
      "y": 216,
      "wires": [
        [
          "19231a3e.e6dce6"
        ]
      ]
    },
    {
      "id": "19231a3e.e6dce6",
      "type": "function",
      "z": "291b84c3.d6e47c",
      "name": "Map SQL customers to RetailOS",
      "func": "for (var i =0; i < msg.payload.length; i++) {\n    var customer = msg.payload[i];\n    customer.id = 'CBR' + customer.id;\n    customer.addresses = [];\n    customer.addresses.push(customer);\n}\n\nmsg.payload = {\n    count : msg.payload.length,\n    rows : msg.payload\n};\n\nmsg.totalResults = msg.payload.count;\ncontext.global.logger.log(node,'Search returned ' + msg.payload.rows.length +' modified results');\n\nreturn msg;",
      "outputs": 1,
      "noerr": 0,
      "x": 635,
      "y": 216,
      "wires": [
        [
          "83c9cae0.7c3638"
        ]
      ]
    },
    {
      "id": "83c9cae0.7c3638",
      "type": "function",
      "z": "291b84c3.d6e47c",
      "name": "Set source to CBR",
      "func": "msg.resultsSource = \"CBR\";\nreturn msg;",
      "outputs": 1,
      "noerr": 0,
      "x": 888.857177734375,
      "y": 216.0000057220459,
      "wires": [
        [
          "2a9a5f35.d565a"
        ]
      ]
    },
    {
      "id": "9d4844ad.62b7b8",
      "type": "function",
      "z": "291b84c3.d6e47c",
      "name": "Set metadata",
      "func": "\nvar resume = msg.payload[0].ResumeStartDate;\n\nmsg.search =  {};\nmsg.search.startDate =  resume ? new Date(resume) : new Date();\nmsg.search.startDateString = msg.search.startDate.toISOString();\nmsg.search.lastModifiedDate = msg.payload[0].LastSuccessDate ? new Date(msg.payload[0].LastSuccessDate) : undefined;\nmsg.search.offset = msg.payload[0].ResumeOffset;\n\nmsg.payload = msg.payload[0];\nreturn msg;",
      "outputs": 1,
      "noerr": 0,
      "x": 450,
      "y": 31,
      "wires": [
        [
          "35eb31b3.ca14ce"
        ]
      ]
    },
    {
      "id": "6931ed66.96ce14",
      "type": "subflow:d2d468e0.2d2b98",
      "z": "291b84c3.d6e47c",
      "name": "",
      "x": 877,
      "y": 492,
      "wires": [
        []
      ]
    },
    {
      "id": "c453e593.3bac18",
      "type": "subflow:28cf561f.d730aa",
      "z": "291b84c3.d6e47c",
      "name": "",
      "x": 554.6708374023438,
      "y": 372.4761657714844,
      "wires": [
        [
          "6931ed66.96ce14"
        ]
      ]
    },
    {
      "id": "2a9a5f35.d565a",
      "type": "switch",
      "z": "291b84c3.d6e47c",
      "name": "Any results?",
      "property": "payload.count",
      "propertyType": "msg",
      "rules": [
        {
          "t": "btwn",
          "v": "1",
          "vt": "num",
          "v2": "search.limit",
          "v2t": "msg"
        },
        {
          "t": "eq",
          "v": "0",
          "vt": "num"
        },
        {
          "t": "gte",
          "v": "search.limit",
          "vt": "msg"
        }
      ],
      "checkall": "false",
      "outputs": 3,
      "x": 145.0892333984375,
      "y": 383.71826171875,
      "wires": [
        [
          "c453e593.3bac18"
        ],
        [
          "6931ed66.96ce14"
        ],
        [
          "a9d7884.f562878"
        ]
      ]
    },
    {
      "id": "a02f5e3e.5fd0a",
      "type": "comment",
      "z": "291b84c3.d6e47c",
      "name": "yes",
      "info": "",
      "x": 366.208251953125,
      "y": 352.09521484375,
      "wires": []
    },
    {
      "id": "b9eabd23.46154",
      "type": "comment",
      "z": "291b84c3.d6e47c",
      "name": "no",
      "info": "",
      "x": 586.8748779296875,
      "y": 427.142822265625,
      "wires": []
    },
    {
      "id": "a9d7884.f562878",
      "type": "function",
      "z": "291b84c3.d6e47c",
      "name": "Throw limit error",
      "func": "context.global.logger.log(node, 'Too many changes since last run - run the initial importer');\nthrow new Error('Too many changes since last run - run the initial importer');\n",
      "outputs": "0",
      "noerr": 0,
      "x": 137.77960205078125,
      "y": 500.80950927734375,
      "wires": []
    },
    {
      "id": "b09c18d5.4f63e8",
      "type": "comment",
      "z": "291b84c3.d6e47c",
      "name": "too many",
      "info": "",
      "x": 75.94622802734375,
      "y": 431.4761657714844,
      "wires": []
    }
  ]
}